4 Statistical Computing- Day4 – Statistical Computing Assignmnet 1
…
flight1 %>%
    filter(carrier=="F9") %>%
    select(distance)

# A tibble: 59 × 1
   distance
      <dbl>
 1     1620
 2     1620
 3     1620
 4     1620
 5     1620
 6     1620
 7     1620
 8     1620
 9     1620
10     1620
# ℹ 49 more rows
…
Using the airlines and flights datasets, do the following, showing the output from each step:

Identify routes that more than one airline flies

routeMultAirlines <- flights %>% 
  group_by(origin, dest) %>% 
  summarise(
    carriers = n_distinct(carrier),
    .groups = "drop"
  ) %>% 
  filter(carriers>1)
  routeMultAirlines

# A tibble: 128 × 3
   origin dest  carriers
   <chr>  <chr>    <int>
 1 EWR    ATL          4
 2 EWR    AUS          2
 3 EWR    BDL          2
 4 EWR    BNA          2
 5 EWR    BOS          3
 6 EWR    BWI          2
 7 EWR    CHS          2
 8 EWR    CLE          2
 9 EWR    CLT          3
10 EWR    CVG          2
# ℹ 118 more rows
…
AvgArrDelay <- flights %>% 
  semi_join(multiRoutes, by = c("origin", "dest")) %>% 
  group_by(origin, dest, carrier) %>% 
  summarise(
    AvgArrDelay = mean(arr_delay, na.rm = TRUE),
    .groups = "drop"
  )
AvgArrDelay

# A tibble: 343 × 4
   origin dest  carrier AvgArrDelay
   <chr>  <chr> <chr>         <dbl>
 1 EWR    ATL   9E            -6.25
 2 EWR    ATL   DL            10.00
 3 EWR    ATL   EV            19.5 
 4 EWR    ATL   UA            10.5 
 5 EWR    AUS   UA             4.28
 6 EWR    AUS   WN           -11.2 
 7 EWR    BDL   EV             6.78
 8 EWR    BDL   UA            22.6 
 9 EWR    BNA   EV            17.7 
10 EWR    BNA   WN            -2.13
# ℹ 333 more rows
For each such route, identify the airline with the worst and best average arrival delay.

best_worst <- AvgArrDelay %>%
  group_by(origin, dest) %>%
  summarise(
    best_airline  = carrier[which.min(AvgArrDelay)],
    best_delay    = min(AvgArrDelay),
    worst_airline = carrier[which.max(AvgArrDelay)],
    worst_delay   = max(AvgArrDelay),
    .groups = "drop"
  )

best_worst

# A tibble: 128 × 6
   origin dest  best_airline best_delay worst_airline worst_delay
   <chr>  <chr> <chr>             <dbl> <chr>               <dbl>
 1 EWR    ATL   9E               -6.25  EV                  19.5 
 2 EWR    AUS   WN              -11.2   UA                   4.28
 3 EWR    BDL   EV                6.78  UA                  22.6 
 4 EWR    BNA   WN               -2.13  EV                  17.7 
 5 EWR    BOS   EV               -4.01  B6                   6.87
 6 EWR    BWI   WN                5.95  EV                  20.1 
 7 EWR    CHS   UA              -14     EV                  16.2 
 8 EWR    CLE   EV               -3.71  UA                   5.97
 9 EWR    CLT   US                0.920 EV                  20.5 
10 EWR    CVG   9E                1.40  EV                  21.2 
# ℹ 118 more rows
…
